module xiv-otp

go 1.18

require (
	github.com/labstack/gommon v0.4.0
	github.com/pquerna/otp v1.4.0
	github.com/tucnak/store v0.0.0-20170905113834-b02ecdcc6dfb
	github.com/wailsapp/wails/v2 v2.6.0
	github.com/xlzd/gotp v0.1.0
)

require (
	github.com/BurntSushi/toml v1.3.2 // indirect
	github.com/bep/debounce v1.2.1 // indirect
	github.com/boombuler/barcode v1.0.1-0.20190219062509-6c824513bacc // indirect
	github.com/go-ole/go-ole v1.2.6 // indirect
	github.com/google/uuid v1.3.0 // indirect
	github.com/jchv/go-winloader v0.0.0-20210711035445-715c2860da7e // indirect
	github.com/labstack/echo/v4 v4.10.2 // indirect
	github.com/leaanthony/go-ansi-parser v1.6.0 // indirect
	github.com/leaanthony/gosod v1.0.3 // indirect
	github.com/leaanthony/slicer v1.6.0 // indirect
	github.com/mattn/go-colorable v0.1.13 // indirect
	github.com/mattn/go-isatty v0.0.19 // indirect
	github.com/pkg/browser v0.0.0-20210911075715-681adbf594b8 // indirect
	github.com/pkg/errors v0.9.1 // indirect
	github.com/rivo/uniseg v0.4.4 // indirect
	github.com/samber/lo v1.38.1 // indirect
	github.com/tkrajina/go-reflector v0.5.6 // indirect
	github.com/valyala/bytebufferpool v1.0.0 // indirect
	github.com/valyala/fasttemplate v1.2.2 // indirect
	github.com/wailsapp/go-webview2 v1.0.1 // indirect
	github.com/wailsapp/mimetype v1.4.1 // indirect
	golang.org/x/crypto v0.9.0 // indirect
	golang.org/x/exp v0.0.0-20230522175609-2e198f4a06a1 // indirect
	golang.org/x/net v0.10.0 // indirect
	golang.org/x/sys v0.8.0 // indirect
	golang.org/x/text v0.9.0 // indirect
	gopkg.in/yaml.v2 v2.3.0 // indirect
)

// replace github.com/wailsapp/wails/v2 v2.3.1 => /home/bwertman/go/pkg/mod
